{
	"header": {
		"978827652449669120": {
			"unique": 2,
			"dropChance": 0,
			"timesAppear": 2,
			"total": 2,
			"header": [
				978827652449669100,
				"RT @JackPosobiec: FBI Raids Home of Clinton Global Initiative Member Nancy Salzman https://t.co/lTzhgAj3vJ",
				0
			],
			"tweets": [
				[
					978827652449669100,
					"RT @JackPosobiec: FBI Raids Home of Clinton Global Initiative Member Nancy Salzman https://t.co/lTzhgAj3vJ",
					0
				],
				[
					978827855374311400,
					"RT @JackPosobiec: FBI Raids Home of Clinton Global Initiative Member Nancy Salzman https://t.co/lTzhgAj3vJ",
					0
				]
			]
		},
		"978827658577563649": {
			"unique": 2,
			"dropChance": 0,
			"timesAppear": 2,
			"total": 2,
			"header": [
				978827658577563600,
				"RT @JunkScience: My latest in the Wall Street Journal. https://t.co/fK05lgnUiu via @WSJ",
				0
			],
			"tweets": [
				[
					978827658577563600,
					"RT @JunkScience: My latest in the Wall Street Journal. https://t.co/fK05lgnUiu via @WSJ",
					0
				],
				[
					978827837573513200,
					"RT @JunkScience: My latest in the Wall Street Journal. https://t.co/fK05lgnUiu via @WSJ",
					0
				]
			]
		},
		"978827659382673410": {
			"unique": 2,
			"dropChance": 0,
			"timesAppear": 2,
			"total": 2,
			"header": [
				978827659382673400,
				"RT @Schuldensuehner: The lesson from stock corrections past? 200 days of pain. https://t.co/GvCc1Zg7iL https://t.co/IW6fvoc2sH",
				0
			],
			"tweets": [
				[
					978827659382673400,
					"RT @Schuldensuehner: The lesson from stock corrections past? 200 days of pain. https://t.co/GvCc1Zg7iL https://t.co/IW6fvoc2sH",
					0
				],
				[
					978827671986671600,
					"RT @Schuldensuehner: The lesson from stock corrections past? 200 days of pain. https://t.co/GvCc1Zg7iL https://t.co/IW6fvoc2sH",
					0
				]
			]
		},
		"978827666395680768": {
			"unique": 2,
			"dropChance": 0,
			"timesAppear": 2,
			"total": 2,
			"header": [
				978827666395680800,
				"RT @BasedMonitored: Say goodbye to Florida in the electoral college. https://t.co/MpMHBW7Nbs",
				0
			],
			"tweets": [
				[
					978827666395680800,
					"RT @BasedMonitored: Say goodbye to Florida in the electoral college. https://t.co/MpMHBW7Nbs",
					0
				],
				[
					978827731822669800,
					"RT @BasedMonitored: Say goodbye to Florida in the electoral college. https://t.co/MpMHBW7Nbs",
					0
				]
			]
		},
		"978827667276554242": {
			"unique": 19,
			"dropChance": 0,
			"timesAppear": 19,
			"total": 19,
			"header": [
				978827667276554200,
				"RT @TeaPainUSA: Trumpers keep accusin' Patriots of seein' Russians everywhere mainly cause we have eyes.\n\nhttps://t.co/56e7Ovwu0O",
				0
			],
			"tweets": [
				[
					978827667276554200,
					"RT @TeaPainUSA: Trumpers keep accusin' Patriots of seein' Russians everywhere mainly cause we have eyes.\n\nhttps://t.co/56e7Ovwu0O",
					0
				],
				[
					978827684989063200,
					"RT @TeaPainUSA: Trumpers keep accusin' Patriots of seein' Russians everywhere mainly cause we have eyes.\n\nhttps://t.co/56e7Ovwu0O",
					0
				],
				[
					978827690932428800,
					"RT @TeaPainUSA: Trumpers keep accusin' Patriots of seein' Russians everywhere mainly cause we have eyes.\n\nhttps://t.co/56e7Ovwu0O",
					0
				],
				[
					978827728152678400,
					"RT @TeaPainUSA: Trumpers keep accusin' Patriots of seein' Russians everywhere mainly cause we have eyes.\n\nhttps://t.co/56e7Ovwu0O",
					0
				],
				[
					978827728089526300,
					"RT @TeaPainUSA: Trumpers keep accusin' Patriots of seein' Russians everywhere mainly cause we have eyes.\n\nhttps://t.co/56e7Ovwu0O",
					0
				],
				[
					978827732489392100,
					"RT @TeaPainUSA: Trumpers keep accusin' Patriots of seein' Russians everywhere mainly cause we have eyes.\n\nhttps://t.co/56e7Ovwu0O",
					0
				],
				[
					978827733286445000,
					"RT @TeaPainUSA: Trumpers keep accusin' Patriots of seein' Russians everywhere mainly cause we have eyes.\n\nhttps://t.co/56e7Ovwu0O",
					0
				],
				[
					978827747425316900,
					"RT @TeaPainUSA: Trumpers keep accusin' Patriots of seein' Russians everywhere mainly cause we have eyes.\n\nhttps://t.co/56e7Ovwu0O",
					0
				],
				[
					978827772251353100,
					"RT @TeaPainUSA: Trumpers keep accusin' Patriots of seein' Russians everywhere mainly cause we have eyes.\n\nhttps://t.co/56e7Ovwu0O",
					0
				],
				[
					978827775439237100,
					"RT @TeaPainUSA: Trumpers keep accusin' Patriots of seein' Russians everywhere mainly cause we have eyes.\n\nhttps://t.co/56e7Ovwu0O",
					0
				],
				[
					978827774424240100,
					"RT @TeaPainUSA: Trumpers keep accusin' Patriots of seein' Russians everywhere mainly cause we have eyes.\n\nhttps://t.co/56e7Ovwu0O",
					0
				],
				[
					978827790912024600,
					"RT @TeaPainUSA: Trumpers keep accusin' Patriots of seein' Russians everywhere mainly cause we have eyes.\n\nhttps://t.co/56e7Ovwu0O",
					0
				],
				[
					978827802223951900,
					"RT @TeaPainUSA: Trumpers keep accusin' Patriots of seein' Russians everywhere mainly cause we have eyes.\n\nhttps://t.co/56e7Ovwu0O",
					0
				],
				[
					978827794892447700,
					"RT @TeaPainUSA: Trumpers keep accusin' Patriots of seein' Russians everywhere mainly cause we have eyes.\n\nhttps://t.co/56e7Ovwu0O",
					0
				],
				[
					978827822985748500,
					"RT @TeaPainUSA: Trumpers keep accusin' Patriots of seein' Russians everywhere mainly cause we have eyes.\n\nhttps://t.co/56e7Ovwu0O",
					0
				],
				[
					978827841180758000,
					"RT @TeaPainUSA: Trumpers keep accusin' Patriots of seein' Russians everywhere mainly cause we have eyes.\n\nhttps://t.co/56e7Ovwu0O",
					0
				],
				[
					978827839859544000,
					"RT @TeaPainUSA: Trumpers keep accusin' Patriots of seein' Russians everywhere mainly cause we have eyes.\n\nhttps://t.co/56e7Ovwu0O",
					0
				],
				[
					978827856334684200,
					"RT @TeaPainUSA: Trumpers keep accusin' Patriots of seein' Russians everywhere mainly cause we have eyes.\n\nhttps://t.co/56e7Ovwu0O",
					0
				],
				[
					978827894779793400,
					"RT @TeaPainUSA: Trumpers keep accusin' Patriots of seein' Russians everywhere mainly cause we have eyes.\n\nhttps://t.co/56e7Ovwu0O",
					0
				]
			]
		},
		"978827680895438849": {
			"unique": 4,
			"dropChance": 0,
			"timesAppear": 4,
			"total": 4,
			"header": [
				978827680895438800,
				"RT @NBA: BREAKING: LeBron James (@KingJames) announces on @ESPN that his going to sign with @MiamiHeat.",
				0
			],
			"tweets": [
				[
					978827680895438800,
					"RT @NBA: BREAKING: LeBron James (@KingJames) announces on @ESPN that his going to sign with @MiamiHeat.",
					0
				],
				[
					978827688868761600,
					"RT @NBA: BREAKING: LeBron James (@KingJames) announces on @ESPN that his going to sign with @MiamiHeat.",
					0
				],
				[
					978827704068952000,
					"RT @NBA: BREAKING: LeBron James (@KingJames) announces on @ESPN that his going to sign with @MiamiHeat.",
					0
				],
				[
					978827766106939400,
					"RT @NBA: BREAKING: LeBron James (@KingJames) announces on @ESPN that his going to sign with @MiamiHeat.",
					0
				]
			]
		},
		"978827682376048640": {
			"unique": 2,
			"dropChance": 0,
			"timesAppear": 2,
			"total": 2,
			"header": [
				978827682376048600,
				"BBC News - China and N Korea confirm Kim Jong-un visit https://t.co/eTGjnq35Ox",
				0
			],
			"tweets": [
				[
					978827682376048600,
					"BBC News - China and N Korea confirm Kim Jong-un visit https://t.co/eTGjnq35Ox",
					0
				],
				[
					978827790534545400,
					"BBC News - China and N Korea confirm Kim Jong-un visit https://t.co/IUP54DDZli",
					0
				]
			]
		},
		"978827682333933568": {
			"unique": 4,
			"dropChance": 0,
			"timesAppear": 4,
			"total": 4,
			"header": [
				978827682333933600,
				"RT @OfficeOfMike: BREAKING: Kim Jong Un told Xi Jinping he is \"committed to denuclearization on the peninsula\"",
				0
			],
			"tweets": [
				[
					978827682333933600,
					"RT @OfficeOfMike: BREAKING: Kim Jong Un told Xi Jinping he is \"committed to denuclearization on the peninsula\"",
					0
				],
				[
					978827711744536600,
					"RT @OfficeOfMike: BREAKING: Kim Jong Un told Xi Jinping he is \"committed to denuclearization on the peninsula\"",
					0
				],
				[
					978827733999366100,
					"RT @OfficeOfMike: BREAKING: Kim Jong Un told Xi Jinping he is \"committed to denuclearization on the peninsula\"",
					0
				],
				[
					978827886680592400,
					"RT @OfficeOfMike: BREAKING: Kim Jong Un told Xi Jinping he is \"committed to denuclearization on the peninsula\"",
					0
				]
			]
		},
		"978827694778568705": {
			"unique": 5,
			"dropChance": 0,
			"timesAppear": 5,
			"total": 5,
			"header": [
				978827694778568700,
				"RT @IngrahamAngle: CONFIRM THEM NOW: Breaking the Schumer Stall https://t.co/rLROeggas4 via @WSJOpinion",
				0
			],
			"tweets": [
				[
					978827694778568700,
					"RT @IngrahamAngle: CONFIRM THEM NOW: Breaking the Schumer Stall https://t.co/rLROeggas4 via @WSJOpinion",
					0
				],
				[
					978827713665478700,
					"RT @IngrahamAngle: CONFIRM THEM NOW: Breaking the Schumer Stall https://t.co/rLROeggas4 via @WSJOpinion",
					0
				],
				[
					978827772826013700,
					"RT @IngrahamAngle: CONFIRM THEM NOW: Breaking the Schumer Stall https://t.co/rLROeggas4 via @WSJOpinion",
					0
				],
				[
					978827827071144000,
					"RT @IngrahamAngle: CONFIRM THEM NOW: Breaking the Schumer Stall https://t.co/rLROeggas4 via @WSJOpinion",
					0
				],
				[
					978827851787989000,
					"RT @IngrahamAngle: CONFIRM THEM NOW: Breaking the Schumer Stall https://t.co/rLROeggas4 via @WSJOpinion",
					0
				]
			]
		},
		"978827700025479169": {
			"unique": 2,
			"dropChance": 0,
			"timesAppear": 2,
			"total": 2,
			"header": [
				978827700025479200,
				"RT @abpnewstv: Passengers shocked after #NewDelhi bound #train reaches #wrong #station\n\nhttps://t.co/Lby4euSffM",
				0
			],
			"tweets": [
				[
					978827700025479200,
					"RT @abpnewstv: Passengers shocked after #NewDelhi bound #train reaches #wrong #station\n\nhttps://t.co/Lby4euSffM",
					0
				],
				[
					978827710955798500,
					"RT @abpnewstv: Passengers shocked after #NewDelhi bound #train reaches #wrong #station\n\nhttps://t.co/Lby4euSffM",
					0
				]
			]
		},
		"978827711874519040": {
			"unique": 3,
			"dropChance": 0,
			"timesAppear": 3,
			"total": 3,
			"header": [
				978827711874519000,
				"RT @FortniteBR: NEWS: More exclusive loot coming for Twitch Prime members: https://t.co/QLFgpWHQuz",
				0
			],
			"tweets": [
				[
					978827711874519000,
					"RT @FortniteBR: NEWS: More exclusive loot coming for Twitch Prime members: https://t.co/QLFgpWHQuz",
					0
				],
				[
					978827734263763000,
					"RT @FortniteBR: NEWS: More exclusive loot coming for Twitch Prime members: https://t.co/QLFgpWHQuz",
					0
				],
				[
					978827839062593500,
					"RT @FortniteBR: NEWS: More exclusive loot coming for Twitch Prime members: https://t.co/QLFgpWHQuz",
					0
				]
			]
		},
		"978827716962242562": {
			"unique": 2,
			"dropChance": 0,
			"timesAppear": 2,
			"total": 2,
			"header": [
				978827716962242600,
				"RT @TheJordanRachel: Oh man @MikeTokes MAKING MY DAY. \nPRAISE GOD THANK YOU JESUS https://t.co/YmebzarGAv",
				0
			],
			"tweets": [
				[
					978827716962242600,
					"RT @TheJordanRachel: Oh man @MikeTokes MAKING MY DAY. \nPRAISE GOD THANK YOU JESUS https://t.co/YmebzarGAv",
					0
				],
				[
					978827752613797900,
					"RT @TheJordanRachel: Oh man @MikeTokes MAKING MY DAY. \nPRAISE GOD THANK YOU JESUS https://t.co/YmebzarGAv",
					0
				]
			]
		},
		"978827754283110401": {
			"unique": 2,
			"dropChance": 0,
			"timesAppear": 2,
			"total": 2,
			"header": [
				978827754283110400,
				"Epiphany sends cease and desist letters to Seneca Nation, others https://t.co/tSQbD6KYhs",
				0
			],
			"tweets": [
				[
					978827754283110400,
					"Epiphany sends cease and desist letters to Seneca Nation, others https://t.co/tSQbD6KYhs",
					0
				],
				[
					978827825670180900,
					"Epiphany sends cease and desist letters to Seneca Nation, others https://t.co/gqJs53kjnS",
					0
				]
			]
		},
		"978827769063723010": {
			"unique": 2,
			"dropChance": 0,
			"timesAppear": 2,
			"total": 2,
			"header": [
				978827769063723000,
				"RT @HotNewHipHop: #SanaaLathan has been revealed as the actress #WhoBitBeyonce \n\nMore here:\n\nhttps://t.co/Nz6ryjXYIY",
				0
			],
			"tweets": [
				[
					978827769063723000,
					"RT @HotNewHipHop: #SanaaLathan has been revealed as the actress #WhoBitBeyonce \n\nMore here:\n\nhttps://t.co/Nz6ryjXYIY",
					0
				],
				[
					978827857618243600,
					"RT @HotNewHipHop: #SanaaLathan has been revealed as the actress #WhoBitBeyonce \n\nMore here:\n\nhttps://t.co/Nz6ryjXYIY",
					0
				]
			]
		},
		"978827810268688384": {
			"unique": 2,
			"dropChance": 0,
			"timesAppear": 2,
			"total": 2,
			"header": [
				978827810268688400,
				"RT @TeaPainUSA: BREAKING: \"Rats conclude no wrongdoing regarding cheese management.\"\n\nhttps://t.co/JbZWtI5Ph9",
				0
			],
			"tweets": [
				[
					978827810268688400,
					"RT @TeaPainUSA: BREAKING: \"Rats conclude no wrongdoing regarding cheese management.\"\n\nhttps://t.co/JbZWtI5Ph9",
					0
				],
				[
					978827844619927600,
					"RT @TeaPainUSA: BREAKING: \"Rats conclude no wrongdoing regarding cheese management.\"\n\nhttps://t.co/JbZWtI5Ph9",
					0
				]
			]
		},
		"978827788479180800": {
			"unique": 2,
			"dropChance": 0,
			"timesAppear": 2,
			"total": 2,
			"header": [
				978827788479180800,
				"BREAKING: California AG Threatens to Arrest Orange County Sheriff for Assisting ICE (VIDEO) https://t.co/BsKXvxNfbi",
				0
			],
			"tweets": [
				[
					978827788479180800,
					"BREAKING: California AG Threatens to Arrest Orange County Sheriff for Assisting ICE (VIDEO) https://t.co/BsKXvxNfbi",
					0
				],
				[
					978827796037406700,
					"BREAKING: California AG Threatens to Arrest Orange County Sheriff for Assisting ICE (VIDEO) https://t.co/pV80OcSwY9",
					0
				]
			]
		},
		"978827800613285888": {
			"unique": 2,
			"dropChance": 0,
			"timesAppear": 2,
			"total": 2,
			"header": [
				978827800613285900,
				"RT @Wowhead: Battle for Azeroth Warfronts - Alliance Plate Armor https://t.co/SLC3Ksr9sE https://t.co/zd9p923iz0",
				0
			],
			"tweets": [
				[
					978827800613285900,
					"RT @Wowhead: Battle for Azeroth Warfronts - Alliance Plate Armor https://t.co/SLC3Ksr9sE https://t.co/zd9p923iz0",
					0
				],
				[
					978827816593711100,
					"RT @Wowhead: Battle for Azeroth Warfronts - Alliance Plate Armor https://t.co/SLC3Ksr9sE https://t.co/zd9p923iz0",
					0
				]
			]
		},
		"978827828497211392": {
			"unique": 2,
			"dropChance": 0,
			"timesAppear": 2,
			"total": 2,
			"header": [
				978827828497211400,
				"RT @BostonJerry: In America, every solution to poverty is on the table except actually paying workers more money. https://t.co/mOo1UrBbTX",
				0
			],
			"tweets": [
				[
					978827828497211400,
					"RT @BostonJerry: In America, every solution to poverty is on the table except actually paying workers more money. https://t.co/mOo1UrBbTX",
					0
				],
				[
					978827828207566800,
					"RT @BostonJerry: In America, every solution to poverty is on the table except actually paying workers more money. https://t.co/mOo1UrBbTX",
					0
				]
			]
		}
	},
	"begin": 1522205671.382,
	"end": 1522205732.062
}
